<svg xmlns="http://www.w3.org/2000/svg" width="167.158" height="56" viewBox="0 0 167.158 56">
    <defs>
        <clipPath id="prefix__clip-path">
            <path id="prefix__Rectangle_132" d="M0 0H167.158V56H0z" data-name="Rectangle 132" style="fill:none"/>
        </clipPath>
        <style>
            .prefix__cls-3{fill:#2491eb}
        </style>
    </defs>
    <g id="prefix__broker_colour_" data-name="broker (colour)" transform="translate(83.579 28)">
        <g id="prefix__Group_132" data-name="Group 132" transform="translate(-83.579 -28)">
            <path id="prefix__Path_795" d="M204 .46v21.176a.493.493 0 0 0 .74.423l1.022-.6a.493.493 0 0 0 .247-.423V3.983a.493.493 0 0 1 .74-.423l16.314 9.408a.493.493 0 0 1 0 .881l-2.326 1.339a.493.493 0 0 0 0 .881l1.022.6a.493.493 0 0 0 .493 0l4.863-2.819a.493.493 0 0 0 0-.881L204.775.037A.493.493 0 0 0 204 .46" class="prefix__cls-3" data-name="Path 795" transform="translate(-132.119 .034)"/>
            <path id="prefix__Path_796" d="M208.052 32.937V34.1a.493.493 0 0 0 .247.423l14.764 8.527a.493.493 0 0 1 0 .881l-16.279 9.443a.493.493 0 0 1-.74-.423v-5.638a.493.493 0 0 1 .247-.423l8.915-5.144a.493.493 0 0 0 0-.881l-1.022-.6a.493.493 0 0 0-.493 0l-9.443 5.462a.493.493 0 0 0-.247.423v10.289a.493.493 0 0 0 .74.423l22.374-12.932a.493.493 0 0 0 0-.881l-18.323-10.571a.493.493 0 0 0-.74.423" data-name="Path 796" transform="translate(-132.119 -20.992)" style="fill:gray"/>
            <path id="prefix__Path_797" d="M6.378 128.914a5.99 5.99 0 0 1-4.757-2.29l-.106 1.976H0v-16h1.762v6.342a5.814 5.814 0 0 1 4.686-2.22 6.1 6.1 0 1 1-.035 12.192m-.141-10.676a4.563 4.563 0 1 0 4.563 4.563 4.563 4.563 0 0 0-4.563-4.563" class="prefix__cls-3" data-name="Path 797" transform="translate(0 -72.925)"/>
            <path id="prefix__Path_798" d="M52.082 126.75h-1.233c-2.431 0-4.087 1.445-4.087 4.264v5.743H45V125.2h1.445l.176 1.938a4.907 4.907 0 0 1 4.123-1.938h1.3z" class="prefix__cls-3" data-name="Path 798" transform="translate(-29.144 -81.085)"/>
            <path id="prefix__Path_799" d="M76.472 124.3a6.1 6.1 0 1 1-6.272 6.1 6.125 6.125 0 0 1 6.272-6.1m.035 10.641a4.545 4.545 0 1 0-4.545-4.545 4.475 4.475 0 0 0 4.545 4.545" class="prefix__cls-3" data-name="Path 799" transform="translate(-45.465 -80.502)"/>
            <path id="prefix__Path_800" d="M115.2 112.6h1.762v11.275l6.025-6.836h2.079l-4.334 4.9 4.651 6.66h-2.114l-3.77-5.462-2.537 2.784v2.679H115.2z" class="prefix__cls-3" data-name="Path 800" transform="translate(-74.609 -72.925)"/>
            <path id="prefix__Path_801" d="M153.507 124.3a6.125 6.125 0 0 1 6.307 6.1V130.929h-10.887a4.581 4.581 0 0 0 4.581 4.087 4.334 4.334 0 0 0 3.841-2.185h1.9a6.2 6.2 0 0 1-5.779 3.665 6.1 6.1 0 1 1 0-12.192m-4.545 5.321h9.02a4.545 4.545 0 0 0-9.02 0" class="prefix__cls-3" data-name="Path 801" transform="translate(-95.333 -80.502)"/>
            <path id="prefix__Path_802" d="M199.247 126.75h-1.233c-2.431 0-4.087 1.445-4.087 4.264v5.743H192.2V125.2h1.445l.176 1.938a4.907 4.907 0 0 1 4.123-1.938h1.3z" class="prefix__cls-3" data-name="Path 802" transform="translate(-124.477 -81.085)"/>
            <path id="prefix__Path_803" d="M219.8 152.1a1.163 1.163 0 0 1 1.2 1.163 1.2 1.2 0 1 1-1.2-1.163" class="prefix__cls-3" data-name="Path 803" transform="translate(-141.576 -98.506)"/>
            <path id="prefix__Path_804" d="M239.972 134.938a4.44 4.44 0 0 0 4.017-2.361h1.8a6.009 6.009 0 0 1-5.814 3.911 6.1 6.1 0 1 1 5.814-8.28h-1.8a4.545 4.545 0 1 0-4.017 6.73" class="prefix__cls-3" data-name="Path 804" transform="translate(-151.354 -80.499)"/>
            <path id="prefix__Path_805" d="M280.572 124.3a6.1 6.1 0 1 1-6.272 6.1 6.125 6.125 0 0 1 6.272-6.1m.035 10.641a4.545 4.545 0 1 0-4.545-4.545 4.475 4.475 0 0 0 4.545 4.545" class="prefix__cls-3" data-name="Path 805" transform="translate(-177.649 -80.502)"/>
            <path id="prefix__Path_806" d="M337.975 136.236h-1.762v-6.307c0-2.784-1.2-4.017-3.03-4.017a3.743 3.743 0 0 0-3.664 3.911v6.413h-1.762v-6.307c0-2.784-1.2-4.017-3.03-4.017a3.731 3.731 0 0 0-3.664 3.946v6.378H319.3v-11.557h1.445l.141 1.55a5.109 5.109 0 0 1 4.052-1.832 4.1 4.1 0 0 1 3.876 2.22 5.352 5.352 0 0 1 4.545-2.22c2.819 0 4.581 1.867 4.581 5.5z" class="prefix__cls-3" data-name="Path 806" transform="translate(-206.793 -80.564)"/>
            <path id="prefix__Path_807" d="M382.9 152.1a1.163 1.163 0 0 1 1.2 1.163 1.2 1.2 0 1 1-1.2-1.163" class="prefix__cls-3" data-name="Path 807" transform="translate(-247.206 -98.506)"/>
            <path id="prefix__Path_808" d="M403.02 124.3a5.955 5.955 0 0 1 4.722 2.29l.141-1.973h1.517v11.557h-1.515l-.141-1.973a6.1 6.1 0 1 1-4.722-9.9m.141 10.676a4.51 4.51 0 1 0-3.26-1.32 4.545 4.545 0 0 0 3.26 1.32" class="prefix__cls-3" data-name="Path 808" transform="translate(-257.039 -80.502)"/>
            <path id="prefix__Path_809" d="M452.3 131.261V125.2h1.762v6.1c0 3.946-2.149 5.779-5.532 5.779S443 135.242 443 131.3v-6.1h1.762v6.061c0 2.889 1.3 4.263 3.77 4.263s3.77-1.374 3.77-4.263" class="prefix__cls-3" data-name="Path 809" transform="translate(-286.906 -81.085)"/>
        </g>
    </g>
</svg>
