<svg xmlns="http://www.w3.org/2000/svg" id="prefix__icon_-_quotes" width="229.686" height="185.392" data-name="icon - quotes" viewBox="0 0 229.686 185.392">
    <defs>
        <style>
            .prefix__cls-1{fill:#f5f4ea}
        </style>
    </defs>
    <g id="prefix__quote" transform="translate(-544.501 -260.42)">
        <path id="prefix__Path" d="M761.205 261.338c-.63.7-1.255 1.4-1.87 2.123 1.864-.83 3.752-1.6 5.627-2.406 2.194-1.221-1.001-.431-3.757.283z" class="prefix__cls-1"/>
        <path id="prefix__Path-2" d="M764.542 421.665a15.394 15.394 0 0 0 2.1-2.9c-.826 1.063-1.8 2.291-1.862 1.983-.297.687-.489 1.1-.238.917z" class="prefix__cls-1" data-name="Path"/>
        <path id="prefix__Path-3" d="M764.779 420.746l.392-.878c-.144.261-.272.476-.426.779-.021.091.026.061.034.099z" class="prefix__cls-1" data-name="Path"/>
        <path id="prefix__Path-4" d="M773.111 382.949l.93.41c-.816-2.049-1.58-5.923-3.035-9.588a31.412 31.412 0 0 0-2.483-5.029 11.848 11.848 0 0 0-2.645-3.125l-.086-.721a44.371 44.371 0 0 0-6.444-5.491c-2.669-2.572-.921-2.689-1.368-2.625a100.879 100.879 0 0 0-8.949-6.344l-7.335-4.649a5.235 5.235 0 0 1-2.233-.363 31.147 31.147 0 0 1-3.594-1.412 59.08 59.08 0 0 1-8.462-4.77 33.962 33.962 0 0 1-4.2-3.657 13.122 13.122 0 0 1-2.829-4.241 12.955 12.955 0 0 1-.983-4.975l.183-2.719c.125-.9.347-1.8.506-2.7a35.03 35.03 0 0 1 4.619-10.255l1.626-2.388c.574-.778 1.2-1.523 1.8-2.288l.9-1.142.979-1.088 1.962-2.174a136.232 136.232 0 0 1 17.767-15.181c1.575-1.114 3.108-2.274 4.691-3.342l4.714-3.2 4.728-3.033c.756-.494 1.607-1.031 2.44-1.526l2.431-1.478a22.868 22.868 0 0 0 2.878-1.886c-.179-.24-.369-.481-.552-.722l-5.963-9.839q-6.556 2.634-12.591 5.4c-.346-.13-.632-.28-.332-.648q-1.633 1.153-3.248 2.32-25.956 12.334-42.017 27.145a115.854 115.854 0 0 0-27.016 37.726 107.051 107.051 0 0 0-5.8 16.835 53.1 53.1 0 0 1 1.562-6.611c.7-2.446 1.352-4.6 1.075-5.2-1.433 5.344-3.413 12.189-4.551 19.05a79.916 79.916 0 0 0-1.177 12.415c-.147 2.324-.227 4.655-.222 6.991q0 28.779 13.907 46.679a51.168 51.168 0 0 0 6.3 6.771c.387.6.755 1.148 1.125 1.618.137-.031.142-.259.19-.468a43.02 43.02 0 0 0 6.889 4.661c-.016.007-.048 0-.061.014 2.321 1.268 4.356 1.934 6.014 2.993a7.248 7.248 0 0 0 2.023.314q1.906.574 3.892.985a.919.919 0 0 1-.152.168c-.478.433-1.578.8-.35 1.584a36.841 36.841 0 0 1-8.782-1.937 64.2 64.2 0 0 1-6.547-2.829A44.76 44.76 0 0 0 705.4 441.7c-.405.153 1.287 1.01 2.431 1.524s1.665.934-1.3.443a42.692 42.692 0 0 0 8.6 1.869 56.81 56.81 0 0 0 9.071.163 48.92 48.92 0 0 0 16.906-4.362c-.741.18-1.57.421-2.2.547-.633.1-1.053.116-.962-.1a23.718 23.718 0 0 1 4.325-1.562 13.176 13.176 0 0 1 1.528.058 7.383 7.383 0 0 0 2.781-2.512 12.686 12.686 0 0 1 1.452-2.251c.909-.453 1.713-.879 2.411-1.317.709-.422 1.344-.81 1.9-1.212 1.133-.764 2.013-1.471 2.865-2.155l5.986-4.9-1.033-.318a11.892 11.892 0 0 0 3.3-4.179c.353-.644.661-1.327 1.1-2.1.456-.762.971-1.655 1.752-2.738.312-.17-.4 1.769-1.13 3.268.588-1.035 1.009-1.793 1.41-2.379s.755-1.016 1.081-1.461a13.516 13.516 0 0 0 1.022-1.489 15.441 15.441 0 0 0 1.045-2.523c-.15 1.275-.28 2.6-.539 3.881.853-1.713 1.641-3.938 2.222-5.458.548-1.53.954-2.363 1.105-1.274a118.575 118.575 0 0 0 1.579-12.59 48.066 48.066 0 0 0-.997-13.624zm-22.4-115.384c.174-.057.335-.108.487-.154-.323.15-.637.3-.958.452z" class="prefix__cls-1" data-name="Path"/>
        <path id="prefix__Path-5" d="M675.766 335.542c-.75 2.359-1.4 4.745-1.983 7.136 1.588-2.614 1.536-4.257 3.241-8.005-.429.283-.842.575-1.258.869z" class="prefix__cls-1" data-name="Path"/>
        <path id="prefix__Path-6" d="M676.219 412.286a60.655 60.655 0 0 0 8.3 12.409c-.164-.274-.336-.54-.491-.818a62.54 62.54 0 0 1-7.809-11.591z" class="prefix__cls-1" data-name="Path"/>
        <path id="prefix__Path-7" d="M765.77 422.343c-.583.881-1.147 1.793-1.6 2.574.675-.953 1.266-1.975 1.886-2.963.562-1.033 1.17-2.028 1.665-3.093l-.622.815a12.994 12.994 0 0 1-1.329 2.667z" class="prefix__cls-1" data-name="Path"/>
        <path id="prefix__Path-8" d="M762.2 354.809a6.974 6.974 0 0 1-2.972-1.594c-.421-.372-.2-.255.714 1.419 3.366 2.642.997-.26 2.258.175z" class="prefix__cls-1" data-name="Path"/>
        <path id="prefix__Path-9" d="M752.62 349.631c-2.219-2.286-2.753-1.662-4.366-2.31a28.368 28.368 0 0 0 4.366 2.31z" class="prefix__cls-1" data-name="Path"/>
        <path id="prefix__Path-10" d="M634.918 261.324l-1.88 2.11 5.636-2.379c2.194-1.22-1.005-.43-3.756.269z" class="prefix__cls-1" data-name="Path"/>
        <path id="prefix__Path-11" d="M638.017 421.723a15.321 15.321 0 0 0 2.119-2.886c-.841 1.05-1.809 2.281-1.874 1.971-.307.681-.496 1.1-.245.915z" class="prefix__cls-1" data-name="Path"/>
        <path id="prefix__Path-12" d="M638.262 420.808l.395-.877c-.144.261-.272.475-.428.777-.021.092.026.062.033.1z" class="prefix__cls-1" data-name="Path"/>
        <path id="prefix__Path-13" d="M646.888 383.107l.927.418c-.8-2.047-1.488-5.923-2.9-9.618a30.107 30.107 0 0 0-2.433-5.084 11.719 11.719 0 0 0-2.658-3.161l-.092-.727a43.514 43.514 0 0 0-6.518-5.439c-2.694-2.539-.949-2.672-1.4-2.6-3.23-2.547-6.235-4.536-8.947-6.282s-5.13-3.253-7.273-4.683c-1.744.27-9.151-2.891-14.166-6.688-2.892-2.366-5.613-5.057-7.135-8.158a10.841 10.841 0 0 1-1.192-4.764l.185-2.726c.129-.9.346-1.8.505-2.707a35.247 35.247 0 0 1 4.58-10.277l1.629-2.393c.561-.785 1.2-1.525 1.789-2.292l.9-1.143c.31-.374.65-.726.974-1.091l1.96-2.174a132.885 132.885 0 0 1 17.777-15.165c1.578-1.11 3.115-2.264 4.7-3.329l4.725-3.179 4.74-3.015c.758-.49 1.615-1.027 2.448-1.517l2.437-1.467a23.068 23.068 0 0 0 2.886-1.873c-.179-.241-.368-.481-.552-.722l-5.964-9.84q-6.825 2.749-12.644 5.286c-.34-.134-.618-.288-.318-.655-1.076.727-2.136 1.473-3.2 2.21a192.722 192.722 0 0 0-18.524 9.308 141.961 141.961 0 0 0-23.819 18.064q-25.1 23.76-32.6 54.122a63.287 63.287 0 0 1 1.493-6.522c.739-2.432 1.343-4.6 1.058-5.2a189.485 189.485 0 0 0-4.4 19.089 86.325 86.325 0 0 0-1.118 12.146c-.157 2.5-.244 5.021-.244 7.577q0 28.779 13.908 46.679a51.9 51.9 0 0 0 6.08 6.586c.377.6.736 1.147 1.095 1.62.135-.027.146-.259.2-.472a43.136 43.136 0 0 0 6.833 4.724.194.194 0 0 0-.051.02l1.68.864 1.567.731a29.651 29.651 0 0 1 2.745 1.443 7.3 7.3 0 0 0 2.019.332c1.269.393 2.562.735 3.886 1.014a.964.964 0 0 1-.153.168c-.482.433-1.58.77-.359 1.582a36.365 36.365 0 0 1-8.773-2.01 63.253 63.253 0 0 1-6.526-2.884 44.411 44.411 0 0 0 10.123 4.412c-.409.155 1.285 1.005 2.423 1.542s1.662.95-1.3.427a41.215 41.215 0 0 0 8.607 1.919 52.084 52.084 0 0 0 9.111.149 49.29 49.29 0 0 0 16.891-4.363c-.743.182-1.573.427-2.2.551-.635.106-1.055.118-.964-.1a24.355 24.355 0 0 1 4.332-1.573 13.081 13.081 0 0 1 1.531.052 7.38 7.38 0 0 0 2.772-2.529 12.693 12.693 0 0 1 1.439-2.258c.909-.453 1.707-.888 2.4-1.324.709-.42 1.338-.811 1.888-1.209 1.13-.76 2.009-1.456 2.862-2.128l6.057-4.813-1.031-.328a11.772 11.772 0 0 0 3.337-4.162c.355-.644.676-1.319 1.109-2.1.458-.762.989-1.644 1.767-2.726.313-.166-.41 1.766-1.148 3.26.59-1.035 1.026-1.781 1.424-2.369s.767-1.006 1.093-1.448a14.759 14.759 0 0 0 1.029-1.479 15.875 15.875 0 0 0 1.075-2.5c-.173 1.268-.311 2.582-.58 3.864.868-1.7 1.678-3.908 2.27-5.419s.978-2.347 1.127-1.254a113.239 113.239 0 0 0 1.736-12.613 63.339 63.339 0 0 0-.033-7.062 40.055 40.055 0 0 0-.914-6.545zM624.36 267.418c.183-.056.351-.105.509-.15l-.958.423z" class="prefix__cls-1" data-name="Path"/>
        <path id="prefix__Path-14" d="M550.558 334.324l-1.262.87-.566 1.767-.475 1.8-.939 3.581a14.318 14.318 0 0 0 1.584-3.58 29.179 29.179 0 0 1 1.658-4.438z" class="prefix__cls-1" data-name="Path"/>
        <path id="prefix__Path-15" d="M549.8 412a61.851 61.851 0 0 0 8.238 12.452c-.168-.27-.33-.543-.478-.827A62.474 62.474 0 0 1 549.8 412z" class="prefix__cls-1" data-name="Path"/>
        <path id="prefix__Path-16" d="M637.621 424.979c.7-.947 1.278-1.975 1.914-2.956.563-1.031 1.18-2.023 1.681-3.08-.211.269-.407.546-.63.806-.53 1.695-2.076 3.651-2.965 5.23z" class="prefix__cls-1" data-name="Path"/>
        <path id="prefix__Path-17" d="M636.012 354.873c-3.052-.67-4.123-3.445-2.252-.148 3.378 2.596.991-.275 2.252.148z" class="prefix__cls-1" data-name="Path"/>
        <path id="prefix__Path-18" d="M626.449 349.8c-2.2-2.28-2.732-1.653-4.334-2.3a27.6 27.6 0 0 0 4.334 2.3z" class="prefix__cls-1" data-name="Path"/>
    </g>
</svg>
