<svg xmlns="http://www.w3.org/2000/svg" id="prefix__logo_-_clientele_-_fairprice_b_w_" width="206" height="80" data-name="logo - clientele - fairprice (b&amp;w)" viewBox="0 0 206 80">
    <defs>
        <clipPath id="prefix__clip-path">
            <path id="prefix__Rectangle_96" d="M0 0H173.839V38H0z" class="prefix__cls-1" data-name="Rectangle 96"/>
        </clipPath>
        <style>
            .prefix__cls-1{fill:none}.prefix__cls-4{fill:#474747}
        </style>
    </defs>
    <g id="prefix__padding" style="stroke:#707070;opacity:0;fill:none">
        <path d="M0 0H206V80H0z" style="stroke:none"/>
        <path d="M0.5 0.5H205.5V79.5H0.5z" class="prefix__cls-1"/>
    </g>
    <g id="prefix__fairprice" transform="translate(102.919 40)">
        <g id="prefix__Group_89" data-name="Group 89" transform="translate(-86.919 -19)">
            <path id="prefix__Path_645" d="M72.674 29.44a2.593 2.593 0 0 1-2.5-2.964 6.59 6.59 0 0 1 7.409-6.02l-1.667 7.687a5.464 5.464 0 0 1-3.242 1.3m9.262-11.577A19.912 19.912 0 0 0 77.4 17.4c-7.965 0-11.021 4.723-11.3 8.984s1.76 6.39 4.816 6.39a7.131 7.131 0 0 0 4.446-1.667l-.28 1.393H77.4c1.574-.093 1.852-.834 2.13-2.038l2.5-12.6h-.093" class="prefix__cls-4" data-name="Path 645" transform="translate(-4.879 -1.285)"/>
            <path id="prefix__Path_646" d="M92.431 17.3h-2.315c-1.574.093-1.852.741-2.13 2.038l-.278 1.482L85.3 32.4h2.5c1.574-.093 1.852-.834 2.13-2.038l.741-3.89 1.853-9.172" class="prefix__cls-4" data-name="Path 646" transform="translate(-6.299 -1.278)"/>
            <path id="prefix__Path_647" d="M93.431 13.515a2.315 2.315 0 1 1-2.316-2.315 2.315 2.315 0 0 1 2.315 2.315" class="prefix__cls-4" data-name="Path 647" transform="translate(-6.558 -.827)"/>
            <path id="prefix__Path_648" d="M149.824 17.293h-2.408c-1.574.093-1.852.741-2.13 2.038l-.278 1.482-2.408 11.576h2.5c1.574-.093 1.852-.834 2.13-2.038l.741-3.89 1.852-9.262" class="prefix__cls-4" data-name="Path 648" transform="translate(-10.531 -1.27)"/>
            <path id="prefix__Path_649" d="M150.831 13.515a2.315 2.315 0 1 1-2.315-2.315 2.315 2.315 0 0 1 2.315 2.315" class="prefix__cls-4" data-name="Path 649" transform="translate(-10.797 -.827)"/>
            <path id="prefix__Path_650" d="M105.343 17.3c-1.111 0-2.315.463-3.8 2.223h-.093l.463-2.13h-2.13a2.223 2.223 0 0 0-2.408 2.038l-.834 3.89L94.6 32.4h2.408c1.574-.093 1.852-.834 2.13-2.038l.278-1.482 1.2-5.464a4.538 4.538 0 0 1 2.778-2.871c1.111-.185 1.945-.093 3.334 1.482 0 0 .185.185.278-.185s.926-2.778.926-2.778-1.76-1.667-2.686-1.667" class="prefix__cls-4" data-name="Path 650" transform="translate(-6.986 -1.278)"/>
            <path id="prefix__Path_651" d="M138.343 17.3c-1.111 0-2.315.463-3.8 2.223h-.093l.463-2.13h-2.13a2.223 2.223 0 0 0-2.408 2.038l-.834 3.89L127.6 32.4h2.408c1.574-.093 1.852-.834 2.13-2.038l1.482-6.946a4.538 4.538 0 0 1 2.778-2.871c1.111-.185 1.945-.093 3.334 1.482 0 0 .093.185.278-.185s.926-2.778.926-2.778-1.76-1.667-2.686-1.667" class="prefix__cls-4" data-name="Path 651" transform="translate(-9.423 -1.278)"/>
            <path id="prefix__Path_652" d="M175.151 24.328c.185-.834.463-3.89 4.075-4.075s4.074.278 2.774 1.947-4.816 2.315-6.205 2.686c0 0-.741.278-.556-.648m.185 3.519c1.3-.185 6.113-.834 8.335-2.408s3.334-3.242 2.5-5.279-3.242-3.149-7.317-2.871-6.113 1.852-6.946 4.26-2.038 7.594-.463 9.262 3.427 1.574 6.483 1.574h3.8c1.574 0 2.223-1.945 2.223-3.056H177.1s-2.686.093-2.686-.834.093-.556 1.2-.741" class="prefix__cls-4" data-name="Path 652" transform="translate(-12.611 -1.267)"/>
            <path id="prefix__Path_653" d="M58.343 12.292v-.278a2.593 2.593 0 0 1 2.038-1.667H65.2c2.778 0 3.334-1.852 3.8-3.149h-9.91a5.65 5.65 0 0 0-2.778.463 3.334 3.334 0 0 0-1.3 1.482 11.206 11.206 0 0 0-.741 2.593l-.926 4.538-2.045 9.91-1.2 5.65c1.852-.278 4.353-.556 5.094-4.26l.648-2.871.648-3.242c.278-1.019.556-1.574 2.038-1.667h3.242c2.778 0 3.334-1.852 3.8-3.149h-8.15l.926-4.353" class="prefix__cls-4" data-name="Path 653" transform="translate(-3.7 -.53)"/>
            <path id="prefix__Path_654" d="M125.389 13.763a9 9 0 0 1-5 2.964l-2.038.556h-.556a.174.174 0 0 1 0-.278v-.648l.648-3.149a3.056 3.056 0 0 1 1.389-2.408 5.742 5.742 0 0 1 2.593-.37 4.816 4.816 0 0 1 2.686.463 2.038 2.038 0 0 1 .185 2.871m4.26-3.7a3.982 3.982 0 0 0-3.242-2.778A34.082 34.082 0 0 0 120.2 7.1a7.039 7.039 0 0 0-3.8.648 4.168 4.168 0 0 0-1.574 2.408c-.463 1.574-.741 3.242-1.111 4.909L110.2 31.823a5.764 5.764 0 0 0 3.982-1.667 6.3 6.3 0 0 0 1.2-2.964l.556-2.593c.185-1.2.463-2.315.741-3.519s1.2-.741 1.76-.834l2.5-.37a12.318 12.318 0 0 0 6.854-3.427 6.619 6.619 0 0 0 1.667-6.576" class="prefix__cls-4" data-name="Path 654" transform="translate(-8.138 -.52)"/>
            <path id="prefix__Path_655" d="M161.505 17.193c-4.075 0-6.761 1.852-7.5 4.26s-2.038 7.409-.463 9.262 3.89 1.667 7.039 1.667h3.8c1.574 0 2.223-1.945 2.223-3.149h-6.946a2.315 2.315 0 0 1-2.686-2.408 15.468 15.468 0 0 1 .37-2.593 4.631 4.631 0 0 1 4.26-3.982h5.186c1.574 0 2.223-1.945 2.223-3.149H161.6" class="prefix__cls-4" data-name="Path 655" transform="translate(-11.284 -1.263)"/>
            <path id="prefix__Path_656" d="M22.786 37.418l-2.038-.37-.741-.185h-.278c-6.02-1.852-8.428-6.483-7.5-14.17a13.615 13.615 0 0 1 .278-1.667L16.858.928c.648-2.871-10.466 1.945-11.67 2.686a2.408 2.408 0 0 0-1.3 1.945L.743 19.821c-2.038 9.447.278 15 7.131 17.041 4.631 1.574 12.04 1.2 15.1.926.463 0 .37-.278-.093-.278m2.871-21.857l-.463 2.13 3.89 1.945a17.967 17.967 0 0 0-3.334-4.075m6.946 11.484a7.965 7.965 0 0 0 3.427-4.353l.463-1.667.185-1.019-1.3 1.667a14.355 14.355 0 0 0-2.778 5.464m-7.224-5v-.556l4.723 2.408a20.838 20.838 0 0 0-5.279-5.65l-.556 2.5a12.318 12.318 0 0 0-.278 1.667c-.278 3.519 1.482 5.372 4.816 5.372l2.038-.278a23.061 23.061 0 0 0-5.742-5.557m5.742 2.223c.463-2.223 2.5-4.168 5.094-6.576l1.3-1.111 1.019-4.723c-1.2 1.3-2.5 2.964-4.353 5.372a13.8 13.8 0 0 0-3.056 7.039m1.76-11.484a13.8 13.8 0 0 0-3.056 7.131c.463-2.223 2.5-4.168 5.094-6.576L38.9 10l1.2-5.46-.463.37a69.277 69.277 0 0 0-6.761 7.965m-3.607-9.261a2.315 2.315 0 0 0-1.3 1.667l-2.035 9.169 2.686 1.3c.37-2.223 2.408-4.26 5.094-6.668s3.242-2.871 4.446-3.8a6.205 6.205 0 0 1 2.04-1.02l.738-3.334c.648-2.871-10.558 1.945-11.67 2.686" class="prefix__cls-4" data-name="Path 656" transform="translate(-.002 -.002)"/>
        </g>
    </g>
</svg>
